#FIG 3.2
Landscape
Center
Inches
Letter  
100.00
Single
-2
1200 2
0 32 #e2e0de
0 33 #fefed1
0 34 #d5fedb
0 35 #d9e6fe
0 36 #dec2a8
6 4800 4275 6900 5250
2 2 0 1 0 33 60 -1 20 0.000 0 0 -1 0 0 5
	 4950 4425 6750 4425 6750 5025 4950 5025 4950 4425
2 4 0 1 0 30 70 -1 20 0.000 0 0 7 0 0 5
	 6900 5250 6900 4275 4800 4275 4800 5250 6900 5250
4 0 0 60 -1 18 12 0.0000 4 180 405 5100 4650 pyfe\001
4 0 0 50 -1 16 12 0.0000 4 180 1230 5175 5175 python module\001
-6
6 2550 4275 4650 5250
2 2 0 1 0 33 60 -1 20 0.000 0 0 -1 0 0 5
	 2700 4425 4500 4425 4500 5025 2700 5025 2700 4425
2 4 0 1 0 30 70 -1 20 0.000 0 0 7 0 0 5
	 4650 5250 4650 4275 2550 4275 2550 5250 4650 5250
4 0 0 60 -1 18 12 0.0000 4 180 675 2850 4650 fe_data\001
4 0 0 50 -1 16 12 0.0000 4 180 1230 2925 5175 python module\001
-6
2 1 0 1 0 17 60 -1 20 0.000 0 0 -1 1 0 2
	1 1 1.00 60.00 120.00
	 3600 8400 3600 7500
2 1 0 1 0 17 60 -1 20 0.000 0 0 -1 1 0 2
	1 1 1.00 60.00 120.00
	 6300 8400 8100 7500
2 1 0 1 0 17 60 -1 20 0.000 0 0 -1 1 0 2
	0 0 1.00 60.00 120.00
	 4500 8700 5025 8700
2 1 0 1 0 17 60 -1 20 0.000 0 0 -1 1 0 2
	0 0 1.00 60.00 120.00
	 1200 6300 1200 6900
2 1 0 1 0 17 60 -1 20 0.000 0 0 -1 1 0 2
	0 0 1.00 60.00 120.00
	 10200 7200 9600 7200
2 1 0 2 14 30 70 -1 20 0.000 0 0 -1 1 0 2
	0 0 1.00 60.00 120.00
	 7500 3000 11100 6900
2 1 0 2 14 14 60 -1 20 0.000 0 0 -1 1 0 2
	0 0 1.00 60.00 120.00
	 1500 7500 3000 8400
2 1 0 2 14 30 70 -1 20 0.000 0 0 -1 1 0 2
	0 0 1.00 60.00 120.00
	 6000 2775 1350 4275
2 2 0 1 0 33 60 -1 20 0.000 0 0 -1 0 0 5
	 300 5700 2100 5700 2100 6300 300 6300 300 5700
2 2 0 1 0 33 60 -1 20 0.000 0 0 -1 0 0 5
	 300 6900 2100 6900 2100 7500 300 7500 300 6900
2 2 0 1 0 33 60 -1 20 0.000 0 0 -1 0 0 5
	 2700 6900 4500 6900 4500 7500 2700 7500 2700 6900
2 2 0 1 0 33 60 -1 20 0.000 0 0 -1 0 0 5
	 5100 6900 6900 6900 6900 7500 5100 7500 5100 6900
2 2 0 1 0 34 60 -1 20 0.000 0 0 -1 0 0 5
	 7800 6900 9600 6900 9600 7500 7800 7500 7800 6900
2 2 0 1 0 34 60 -1 20 0.000 0 0 -1 0 0 5
	 10200 6900 12000 6900 12000 7500 10200 7500 10200 6900
2 2 0 1 0 35 60 -1 20 0.000 0 0 -1 0 0 5
	 5025 8400 6825 8400 6825 9000 5025 9000 5025 8400
2 2 0 1 0 35 70 -1 20 0.000 0 0 -1 0 0 5
	 5100 8475 6900 8475 6900 9075 5100 9075 5100 8475
2 2 0 1 0 35 60 -1 20 0.000 0 0 -1 0 0 5
	 2700 8400 4500 8400 4500 9000 2700 9000 2700 8400
2 4 0 1 0 30 70 -1 20 0.000 0 0 7 0 0 5
	 12150 7725 12150 6750 10050 6750 10050 7725 12150 7725
2 4 0 1 0 32 80 -1 20 0.000 0 0 7 0 0 5
	 7125 9600 7125 8250 2550 8250 2550 9600 7125 9600
2 1 0 1 0 36 50 -1 20 0.000 0 0 -1 1 0 2
	0 0 1.00 60.00 120.00
	 10800 9675 11100 7500
2 1 0 1 0 36 50 -1 20 0.000 0 0 -1 1 0 2
	0 0 1.00 60.00 120.00
	 9000 9675 8700 7500
2 4 0 1 0 32 80 -1 20 0.000 0 0 7 0 0 5
	 7275 7950 7275 6000 12300 6000 12300 7950 7275 7950
2 4 0 1 0 36 50 -1 20 0.000 0 0 7 0 0 5
	 11475 11025 11475 9675 8475 9675 8475 11025 11475 11025
2 4 0 1 0 33 60 -1 20 0.000 0 0 7 0 0 5
	 6675 6525 2625 6525 2625 5475 6675 5475 6675 6525
2 1 0 2 14 30 70 -1 20 0.000 0 0 -1 1 0 2
	0 0 1.00 60.00 120.00
	 7125 3000 5550 4275
2 4 0 1 0 32 80 -1 20 0.000 0 0 7 0 0 5
	 7050 7725 7050 3750 150 3750 150 7725 7050 7725
2 2 0 1 0 7 80 -1 20 0.000 0 0 -1 0 0 5
	 6000 2400 7800 2400 7800 3000 6000 3000 6000 2400
2 1 0 1 0 17 60 -1 20 0.000 0 0 -1 1 0 2
	1 1 1.00 60.00 120.00
	 7800 7200 6900 7200
2 1 0 2 14 30 70 -1 20 0.000 0 0 -1 1 0 2
	0 0 1.00 60.00 120.00
	 6525 3000 3600 4275
2 1 0 1 0 30 70 -1 20 0.000 0 0 -1 1 0 2
	0 0 1.00 60.00 120.00
	 1200 5250 1200 5700
2 2 0 1 0 33 60 -1 20 0.000 0 0 -1 0 0 5
	 450 4425 2250 4425 2250 5025 450 5025 450 4425
2 4 0 1 0 30 70 -1 20 0.000 0 0 7 0 0 5
	 2400 5250 2400 4275 300 4275 300 5250 2400 5250
4 0 0 50 -1 18 12 0.0000 4 180 975 5175 8625 component\001
4 0 0 50 -1 18 12 0.0000 4 180 570 2850 8625 library\001
4 0 0 50 -1 18 12 0.0000 4 180 1350 5175 8925 implementation\001
4 0 0 50 -1 18 12 0.0000 4 135 750 2850 8925 instance\001
4 0 0 60 -1 18 12 0.0000 4 180 1290 5250 7125 fe::Component\001
4 0 0 50 -1 18 12 0.0000 4 180 930 2850 7125 fe::Library\001
4 0 0 60 -1 18 12 0.0000 4 135 540 450 7125 loader\001
4 0 0 60 -1 18 12 0.0000 4 180 705 450 5925 registry\001
4 0 0 50 -1 18 12 0.0000 4 135 330 7950 7425 C++\001
4 0 0 50 -1 18 12 0.0000 4 135 1065 10350 7125 function set\001
4 0 0 50 -1 18 12 0.0000 4 180 615 10350 7425 python\001
4 0 12 70 -1 18 12 0.0000 4 150 690 1425 8100 manage\001
4 0 0 50 -1 16 12 0.0000 4 180 1230 10500 7650 python module\001
4 0 0 50 -1 18 12 0.0000 4 180 2745 7350 6300 system/component framework\001
4 0 0 50 -1 16 12 0.0000 4 180 2985 7350 6525 advanced plugins/fe builtin systems\001
4 0 0 50 -1 18 12 0.0000 4 180 645 9450 9975 general\001
4 0 0 50 -1 18 12 0.0000 4 180 1485 9150 10200 application/game\001
4 0 0 50 -1 18 12 0.0000 4 180 1005 9450 10425 python/C++\001
4 0 0 50 -1 18 12 0.0000 4 135 420 9600 10650 code\001
4 0 0 50 -1 16 12 0.0000 4 180 2310 8700 10875 (likely as components itself)\001
4 0 0 50 -1 18 12 0.0000 4 180 3135 3075 6075 platform/core/state/multithread/etc\001
4 0 0 50 -1 18 12 0.0000 4 135 1470 375 3975 fe infrastructure\001
4 0 0 60 -1 18 12 0.0000 4 180 615 6600 2625 python\001
4 0 12 70 -1 18 12 0.0000 4 180 570 6600 2925 import\001
4 0 0 50 -1 18 12 0.0000 4 135 795 7950 7125 interface\001
4 0 0 50 -1 18 12 0.0000 4 180 1590 3975 9375 basic plugin / mod\001
4 0 0 60 -1 18 12 0.0000 4 180 795 600 4650 fe_signal\001
4 0 0 50 -1 16 12 0.0000 4 180 1230 675 5175 python module\001
